<?xml version="1.0" encoding="UTF-8"?>
<CustomTab xmlns="http://soap.sforce.com/2006/04/metadata">
    <frameHeight>3600</frameHeight>
    <hasSidebar>false</hasSidebar>
    <label>Insights</label>
    <mobileReady>false</mobileReady>
    <motif>Custom43: Jewel</motif>
    <scontrol>Analytics</scontrol>
</CustomTab>
