<?xml version="1.0" encoding="UTF-8"?>
<CustomTab xmlns="http://soap.sforce.com/2006/04/metadata">
    <label>Veeva Process Scheduler</label>
    <mobileReady>false</mobileReady>
    <motif>Custom32: Factory</motif>
    <page>Scheduler_Administration_vod</page>
</CustomTab>
